Short Term, Local Case and Reproductive Rates • outbreaktools
…
summarised_rt <- rt_estimates$rts %>%
  group_by(date) %>%
  summarise(rt = mean(R)) %>%
  select(rt, date)

rt_forecast <- forecast_rt(summarised_rt[1:20,],
                       model = function(...){EpiSoon::bsts_model(model = function(ss, y){bsts::AddAutoAr(ss, y = y, lags = 10)}, ...)},
                       horizon = 21, samples = 10)

rt_scores <- score_forecast(fit_samples = rt_forecast, summarised_rt)
rt_scores
#> # A tibble: 21 x 11
#>    date       horizon   dss  crps   logs   bias sharpness calibration median
#>    <date>       <int> <dbl> <dbl>  <dbl>  <dbl>     <dbl>       <dbl>  <dbl>
#>  1 2020-03-25       1 0.590 0.476   1.52  0.200     1.63    0.0000286   1.42
#>  2 2020-03-26       2 1.26  0.733   1.81  0.4       1.56    0.0000286   2.42
#>  3 2020-03-27       3 1.38  0.767   2.03 -0.200     1.87    0.0000286   3.17
#>  4 2020-03-28       4 7.84  2.88    3.52 -1         1.55    0.0000286   6.97
#>  5 2020-03-29       5 1.67  0.924   2.22 -0.200     1.93    0.0000286   2.83
#>  6 2020-03-30       6 2.22  0.800   2.03  0.4       3.26    0.0000286   1.84
#>  7 2020-03-31       7 0.741 0.415   1.41 -0.200     0.658   0.0000286   1.05
#>  8 2020-04-01       8 1.13  0.819   1.94 -0.6       0.829   0.0000286   3.12
#>  9 2020-04-02       9 2.00  1.67  Inf    -0.8       0       0.0000286   4.61
#> 10 2020-04-03      10 1.48  1.02    2.21 -0.6       0.246   0.0000286   4.43
#> # … with 11 more rows, and 2 more variables: iqr <dbl>, ci <dbl>
…
summarised_rt_forecast <- summarise_forecast(rt_forecast)

summarised_rt_forecast
#> # A tibble: 21 x 9
#>    date       horizon median  mean    sd bottom lower upper   top
#>    <date>       <int>  <dbl> <dbl> <dbl>  <dbl> <dbl> <dbl> <dbl>
#>  1 2020-03-25       1  2.06  1.79   1.33      0 0.585 2.55   4.18
#>  2 2020-03-26       2  2.29  2.16   1.47      0 1.97  3.36   4.48
#>  3 2020-03-27       3  1.26  1.90   1.80      0 0     1.52   4.94
#>  4 2020-03-28       4  1.68  1.54   1.42      0 0     1.69   4.29
#>  5 2020-03-29       5  1.30  2.14   2.35      0 0     2.13   6.14
#>  6 2020-03-30       6  2.20  2.73   2.73      0 0     2.21   7.70
#>  7 2020-03-31       7  0.444 1.13   1.52      0 0     0.888  4.59
#>  8 2020-04-01       8  0.559 1.12   1.40      0 0     1.12   3.74
#>  9 2020-04-02       9  0     0.890  2.35      0 0     0      7.44
#> 10 2020-04-03      10  0.166 1.17   1.62      0 0     0.332  4.11
#> # … with 11 more rows
…
case_forecast <- forecast_cases(cases_df, rt_forecast,
                                serial_interval = EpiSoon::example_serial_interval)

case_scores <- score_case_forecast(case_forecast, cases_df)

summarised_case_forecast <- summarise_case_forecast(case_forecast)

summarised_case_forecast
#> # A tibble: 21 x 9
#>    date       horizon median  mean    sd bottom lower upper   top
#>    <date>       <int>  <dbl> <dbl> <dbl>  <dbl> <dbl> <dbl> <dbl>
#>  1 2020-03-25       1    2.5   2.4  2.46      0     0     3     8
#>  2 2020-03-26       2    4     4.9  4.43      0     0     4    13
#>  3 2020-03-27       3    2.5   3.8  5.16      0     0     3    15
#>  4 2020-03-28       4    3     3.5  4.12      0     0     4    13
#>  5 2020-03-29       5    3     5.2  6.37      0     0     4    19
#>  6 2020-03-30       6    9    10.6 10.8       0     0    15    27
#>  7 2020-03-31       7    2.5   5.9  6.72      0     0     5    14
#>  8 2020-04-01       8    2     7.8 12.9       0     0     4    41
#>  9 2020-04-02       9    0     5.9 13.6       0     0     0    41
#> 10 2020-04-03      10    0    11.7 21.1       0     0     0    66
#> # … with 11 more rows
…
Iterative Fitting

it_rt_forecast <- iterative_rt_forecast(summarised_rt,
                                        model = function(...){
                                          EpiSoon::bsts_model(model = function(ss, y){bsts::AddAutoAr(ss, y = y, lags = 10)}, ...)
                                          },
                                        horizon = 7, samples = 10, min_points = 4)

it_rt_forecast
#> # A tibble: 3,500 x 5
#>    forecast_date sample date          rt horizon
#>  * <chr>          <int> <date>     <dbl>   <int>
#>  1 2020-03-09         1 2020-03-10  2.71       1
#>  2 2020-03-09         2 2020-03-10  3.35       1
#>  3 2020-03-09         3 2020-03-10  2.80       1
#>  4 2020-03-09         4 2020-03-10  3.66       1
#>  5 2020-03-09         5 2020-03-10  3.26       1
#>  6 2020-03-09         6 2020-03-10  2.89       1
#>  7 2020-03-09         7 2020-03-10  2.99       1
#>  8 2020-03-09         8 2020-03-10  3.07       1
#>  9 2020-03-09         9 2020-03-10  3.01       1
#> 10 2020-03-09        10 2020-03-10  1.26       1
#> # … with 3,490 more rows

it_cases_forecast <- iterative_case_forecast(it_fit_samples = it_rt_forecast,
                                             cases = cases_df,
                                             serial_interval = EpiSoon::example_serial_interval)

it_cases_forecast
#> # A tibble: 3,500 x 5
#>    forecast_date sample date       cases horizon
#>  * <chr>          <dbl> <date>     <int>   <int>
#>  1 2020-03-09         1 2020-03-10     0       1
#>  2 2020-03-09         1 2020-03-11     0       2
#>  3 2020-03-09         1 2020-03-12     0       3
#>  4 2020-03-09         1 2020-03-13     0       4
#>  5 2020-03-09         1 2020-03-14     0       5
#>  6 2020-03-09         1 2020-03-15     0       6
#>  7 2020-03-09         1 2020-03-16     0       7
#>  8 2020-03-09         2 2020-03-10     0       1
#>  9 2020-03-09         2 2020-03-11     0       2
#> 10 2020-03-09         2 2020-03-12     0       3
#> # … with 3,490 more rows
…
